^G:\ВСЕ, ЧТО СВЯЗАНО С UE\C++\DZ_17_5\DZ_17_5.CPP
G:\Все, что связано с UE\C++\DZ_17_5\DEBUG\VC142.PDB
G:\Все, что связано с UE\C++\DZ_17_5\DEBUG\VC142.IDB
G:\Все, что связано с UE\C++\DZ_17_5\DEBUG\DZ_17_5.OBJ
